{
  "data": [
    {
      "category": "3.10",
      "date": "2024-09",
      "downloads": 2
    },
    {
      "category": "3.10",
      "date": "2024-10",
      "downloads": 1
    },
    {
      "category": "3.10",
      "date": "2024-11",
      "downloads": 2
    },
    {
      "category": "3.10",
      "date": "2025-02",
      "downloads": 1
    },
    {
      "category": "3.10",
      "date": "2025-03",
      "downloads": 1
    },
    {
      "category": "3.9",
      "date": "2024-10",
      "downloads": 4
    },
    {
      "category": "3.9",
      "date": "2025-03",
      "downloads": 2
    },
    {
      "category": "null",
      "date": "2024-09",
      "downloads": 37
    },
    {
      "category": "null",
      "date": "2024-10",
      "downloads": 88
    },
    {
      "category": "null",
      "date": "2024-11",
      "downloads": 35
    },
    {
      "category": "null",
      "date": "2024-12",
      "downloads": 38
    },
    {
      "category": "null",
      "date": "2025-01",
      "downloads": 65
    },
    {
      "category": "null",
      "date": "2025-02",
      "downloads": 53
    },
    {
      "category": "null",
      "date": "2025-03",
      "downloads": 17
    }
  ],
  "package": "korspollinering",
  "type": "python_minor_downloads"
}
